Intro to Lubridate
…
## Parsed with column specification:
## cols(
##   date = col_character(),
##   max_temp = col_double(),
##   min_temp = col_double(),
##   mean_temp = col_double(),
##   mean_rh = col_double(),
##   events = col_character(),
##   cloud_cover = col_double()
## )

# Print akl_daily_raw
akl_daily_raw

## # A tibble: 3,661 x 7
##    date      max_temp min_temp mean_temp mean_rh events cloud_cover
##    <chr>        <dbl>    <dbl>     <dbl>   <dbl> <chr>        <dbl>
##  1 2007-9-1        60       51        56      75 <NA>             4
##  2 2007-9-2        60       53        56      82 Rain             4
##  3 2007-9-3        57       51        54      78 <NA>             6
##  4 2007-9-4        64       50        57      80 Rain             6
##  5 2007-9-5        53       48        50      90 Rain             7
##  6 2007-9-6        57       42        50      69 <NA>             1
##  7 2007-9-7        59       41        50      77 <NA>             4
##  8 2007-9-8        59       46        52      80 <NA>             5
##  9 2007-9-9        55       50        52      88 Rain             7
## 10 2007-9-10       59       50        54      82 Rain             4
## #  with 3,651 more rows
…
another feature of dplyr and the tidyverse is the %>% pipe operator which lets us set up chained operations that work on our date - read left to right, first take this data and do this, then that.

lets walk thru it:

# Parse date 
akl_daily <- akl_daily_raw %>%
  mutate(date = ymd(date))

lets see what it looks like now

# Print akl_daily
akl_daily

## # A tibble: 3,661 x 7
##    date       max_temp min_temp mean_temp mean_rh events cloud_cover
##    <date>        <dbl>    <dbl>     <dbl>   <dbl> <chr>        <dbl>
##  1 2007-09-01       60       51        56      75 <NA>             4
##  2 2007-09-02       60       53        56      82 Rain             4
##  3 2007-09-03       57       51        54      78 <NA>             6
##  4 2007-09-04       64       50        57      80 Rain             6
##  5 2007-09-05       53       48        50      90 Rain             7
##  6 2007-09-06       57       42        50      69 <NA>             1
##  7 2007-09-07       59       41        50      77 <NA>             4
##  8 2007-09-08       59       46        52      80 <NA>             5
##  9 2007-09-09       55       50        52      88 Rain             7
## 10 2007-09-10       59       50        54      82 Rain             4
## #  with 3,651 more rows
…
notice the date components are spread across columns

# Print akl_hourly_raw
akl_hourly_raw

## # A tibble: 17,454 x 10
##     year month  mday time  temperature weather conditions events humidity
##    <dbl> <dbl> <dbl> <drt>       <dbl> <chr>   <chr>      <chr>     <dbl>
##  1  2016     1     1 00:00        68   Clear   Clear      <NA>         68
##  2  2016     1     1 00:30        68   Clear   Clear      <NA>         68
##  3  2016     1     1 01:00        68   Clear   Clear      <NA>         73
##  4  2016     1     1 01:30        68   Clear   Clear      <NA>         68
##  5  2016     1     1 02:00        68   Clear   Clear      <NA>         68
##  6  2016     1     1 02:30        68   Clear   Clear      <NA>         68
##  7  2016     1     1 03:00        68   Clear   Clear      <NA>         68
##  8  2016     1     1 03:30        68   Cloudy  Partly Cl <NA>         68
##  9  2016     1     1 04:00        68   Cloudy  Scattered <NA>         68
## 10  2016     1     1 04:30        66.2 Cloudy  Partly Cl <NA>         73
## #  with 17,444 more rows, and 1 more variable: date_utc <dttm>

Using mutate() create the column date with using make_date(), which lets us concatenate date components together

# Use make_date() to combine year, month and mday 
akl_hourly  <- akl_hourly_raw  %>% 
  mutate(date = make_date(year = year, month = month, day = mday))

akl_hourly

## # A tibble: 17,454 x 11
##     year month  mday time  temperature weather conditions events humidity
##    <dbl> <dbl> <dbl> <drt>       <dbl> <chr>   <chr>      <chr>     <dbl>
##  1  2016     1     1 00:00        68   Clear   Clear      <NA>         68
##  2  2016     1     1 00:30        68   Clear   Clear      <NA>         68
##  3  2016     1     1 01:00        68   Clear   Clear      <NA>         73
##  4  2016     1     1 01:30        68   Clear   Clear      <NA>         68
##  5  2016     1     1 02:00        68   Clear   Clear      <NA>         68
##  6  2016     1     1 02:30        68   Clear   Clear      <NA>         68
##  7  2016     1     1 03:00        68   Clear   Clear      <NA>         68
##  8  2016     1     1 03:30        68   Cloudy  Partly Cl <NA>         68
##  9  2016     1     1 04:00        68   Cloudy  Scattered <NA>         68
## 10  2016     1     1 04:30        66.2 Cloudy  Partly Cl <NA>         73
## #  with 17,444 more rows, and 2 more variables: date_utc <dttm>,
## #   date <date>
…
# Parse datetime_string 
akl_hourly <- akl_hourly  %>% 
  mutate(
    datetime_string = paste(date, time, sep = "T"),
    datetime = ymd_hms(datetime_string)
  )

Take a look at the date, time and datetime columns to verify they match up.

Here well use another dplyr function select to pull out only the columns we are interested in

# Print date, time and datetime columns of akl_hourly
akl_hourly %>% select(date, time, datetime)

## # A tibble: 17,454 x 3
##    date       time   datetime           
##    <date>     <drtn> <dttm>             
##  1 2016-01-01 00:00  2016-01-01 00:00:00
##  2 2016-01-01 00:30  2016-01-01 00:30:00
##  3 2016-01-01 01:00  2016-01-01 01:00:00
##  4 2016-01-01 01:30  2016-01-01 01:30:00
##  5 2016-01-01 02:00  2016-01-01 02:00:00
##  6 2016-01-01 02:30  2016-01-01 02:30:00
##  7 2016-01-01 03:00  2016-01-01 03:00:00
##  8 2016-01-01 03:30  2016-01-01 03:30:00
##  9 2016-01-01 04:00  2016-01-01 04:00:00
## 10 2016-01-01 04:30  2016-01-01 04:30:00
## #  with 17,444 more rows
…
# Add columns for year, yday and month
akl_daily <- akl_daily %>%
  mutate(
    year = year(date),
    yday = yday(date),
    month = month(date, label = TRUE))

akl_daily

## # A tibble: 3,661 x 7
##    date       max_temp min_temp mean_temp mean_rh events cloud_cover
##    <date>        <dbl>    <dbl>     <dbl>   <dbl> <chr>        <dbl>
##  1 2007-09-01       60       51        56      75 <NA>             4
##  2 2007-09-02       60       53        56      82 Rain             4
##  3 2007-09-03       57       51        54      78 <NA>             6
##  4 2007-09-04       64       50        57      80 Rain             6
##  5 2007-09-05       53       48        50      90 Rain             7
##  6 2007-09-06       57       42        50      69 <NA>             1
##  7 2007-09-07       59       41        50      77 <NA>             4
##  8 2007-09-08       59       46        52      80 <NA>             5
##  9 2007-09-09       55       50        52      88 Rain             7
## 10 2007-09-10       59       50        54      82 Rain             4
## #  with 3,651 more rows
…
Create a new column called day_hour that is datetime rounded down to the nearest hour

# Create day_hour, datetime rounded down to hour
akl_hourly <- akl_hourly %>%
  mutate(
    day_hour = floor_date(datetime, unit = "hour")
  )

Use count() on day_hour to count how many observations there are in each hour

# Count observations per hour  
akl_hourly %>% 
  count(day_hour) 

## # A tibble: 8,770 x 2
##    day_hour                n
##    <dttm>              <int>
##  1 2016-01-01 00:00:00     2
##  2 2016-01-01 01:00:00     2
##  3 2016-01-01 02:00:00     2
##  4 2016-01-01 03:00:00     2
##  5 2016-01-01 04:00:00     2
##  6 2016-01-01 05:00:00     2
##  7 2016-01-01 06:00:00     2
##  8 2016-01-01 07:00:00     2
##  9 2016-01-01 08:00:00     2
## 10 2016-01-01 09:00:00     2
## #  with 8,760 more rows

Extend the pipeline so that after counting, you filter for observations where n is not equal to 2

# Find day_hours with n != 2 
akl_hourly %>% 
  count(day_hour) %>%
  filter(n != 2) %>% 
  arrange(desc(n))

## # A tibble: 92 x 2
##    day_hour                n
##    <dttm>              <int>
##  1 2016-04-03 02:00:00     4
##  2 2016-09-25 00:00:00     4
##  3 2016-06-26 09:00:00     1
##  4 2016-09-01 23:00:00     1
##  5 2016-09-02 01:00:00     1
##  6 2016-09-04 11:00:00     1
##  7 2016-09-04 16:00:00     1
##  8 2016-09-04 17:00:00     1
##  9 2016-09-05 00:00:00     1
## 10 2016-09-05 15:00:00     1
## #  with 82 more rows
…
